…
    ## [1] 134

``` r
# aisles from which most items are ordered
instacart %>% 
  group_by(aisle_id) %>% 
  summarize(n_items = n()) %>% 
  arrange(desc(n_items))
```

    ## # A tibble: 134 x 2
    ##    aisle_id n_items
    ##       <int>   <int>
    ##  1       83  150609
    ##  2       24  150473
    ##  3      123   78493
    ##  4      120   55240
    ##  5       21   41699
    ##  6      115   36617
    ##  7       84   32644
    ##  8      107   31269
    ##  9       91   26240
    ## 10      112   23635
    ## # ... with 124 more rows
…
I cleaned the dataset by separating *year*, *month*, and *day* into distinct variables, converted quantitative variables into numeric, and recomputed observations for *prcp*, *tmin*, and *tmax* to reasonable units mm and degrees celsius as opposed to the initial 1/10th of mm and 1/10th of degrees celsius.

### Most common value for snowfall

``` r
tidy_nynoaa %>% 
  group_by(snow) %>% 
  summarize(n = n()) %>% 
  arrange(desc(n))
```

    ## # A tibble: 282 x 2
    ##     snow       n
    ##    <dbl>   <int>
    ##  1     0 2008508
    ##  2    NA  381221
    ##  3    25   31022
    ##  4    13   23095
    ##  5    51   18274
    ##  6    76   10173
    ##  7     8    9962
    ##  8     5    9748
    ##  9    38    9197
    ## 10     3    8790
    ## # ... with 272 more rows
…
